…
The resulting output is a tibble with columns: Author, Pathogen,
Country, mean, sd, and wts. The mean and sd columns refer to the
estimates for the mean and standard deviation of the serial interval
distribution. The wts column refers to the weights for the different
transmission routes, and can be used as inputs when plotting the fitted
serial interval distribution using `plot_si_fit`. The weights are stored
as a list, so are not visible when printing the results, but can be
accessed using `results_historical$wts`.

    #> # A tibble: 22 × 6
    #> # Groups:   Author, Pathogen [20]
    #>    Author    Pathogen               Country  mean    sd wts      
    #>    <chr>     <chr>                  <chr>   <dbl> <dbl> <list>   
    #>  1 Aaby      Measles                Kenya    9.93  2.40 <dbl [7]>
    #>  2 Aycock    Rubella                Unknown 18.3   1.97 <dbl [7]>
    #>  3 Bailey    Measles                England 10.9   1.93 <dbl [7]>
    #>  4 Cauchemez Influenza A(H1N1)pdm09 USA      2.08  1.24 <dbl [7]>
    #>  5 Chapin    Measles                USA     11.9   2.56 <dbl [7]>
    #>  6 Crowcroft RSV                    England  7.52  2.11 <dbl [7]>
    #>  7 Fine      Measles                England 13.7   1.50 <dbl [7]>
    #>  8 Fine      Measles                USA     13.8   2.55 <dbl [7]>
    #>  9 Fine      Smallpox               Germany 16.7   3.28 <dbl [7]>
    #> 10 Fine      Smallpox               Kosovo  17.3   1.90 <dbl [7]>
    #> # ℹ 12 more rows
…
